2015 task3b,no company,company,some company,organiser,paper,closed,pos
VectorSLU,1,0,0,1,1,0,1
ECNU,1,0,0,0,1,0,2
QCRI-,0,0,1,1,1,0,3
HITSZ-ICRC,1,0,0,0,1,0,4
CICBUAPnlp,0,0,1,0,1,0,5
ICRC-HIT,1,0,0,0,1,0,6
Yamraj-,1,0,0,0,0,0,7
FBK-HLT-,0,0,1,0,1,0,8
,0,0,0,0,0,0,0
