2015 task1,no company,company,some company,organiser,paper,closed,pos
MITRE,0,1,0,0,1,0,1
RTM-DCU,1,0,0,0,1,0,2
HLTC-HKUST,1,0,0,0,1,0,3
AJ,1,0,0,0,0,0,4
DEPTH,1,0,0,0,0,0,5
ROB,1,0,0,0,1,0,6
MATHLING,1,0,0,0,1,0,7
ASOBEK,1,0,0,0,1,0,8
CDTDS,1,0,0,0,1,0,9
FBK-HLT,1,0,0,0,1,0,10
COLUMBIA,1,0,0,0,0,0,11
HASSY,1,0,0,0,0,0,12
YAMRAJ,1,0,0,0,0,0,13
,0,0,0,0,0,0,0
