2015 task10c,no company,company,some company,organiser,paper,closed,pos
KLUEless,1,0,0,0,1,0,1
Whu-Nlp,0,0,1,0,0,0,2
TwitterHawk,1,0,0,0,1,0,3
whu-iss,1,0,0,0,0,0,4
ECNU,1,0,0,0,1,0,5
UMDuluth-CS8761,1,0,0,0,1,0,6
,0,0,0,0,0,0,0
