2015 task14c,no company,company,some company,organiser,paper,closed,pos
UTH-CCB,1,0,0,0,1,0,1
ezDI,0,1,0,0,1,0,2
UWM,1,0,0,0,1,0,3
CUAB,1,0,0,0,1,0,4
Bioinformatics-UA,1,0,0,0,1,0,5
TeamHCMUS,1,0,0,0,1,0,6
UMLNLP2014,1,0,0,0,0,0,7
LIST-LUX,1,0,0,0,1,0,8
CUAB,1,0,0,0,1,0,9
UtahPOET,1,0,0,0,1,0,10
,0,0,0,0,0,0,0
