2014 task9b,no company,company,some company,organiser,paper,closed,pos
TeamX,0,1,0,0,1,1,1
coooolll,0,1,0,0,1,1,2
RTRGO,0,0,1,0,1,1,3
NRC-Canada,0,1,0,0,1,1,4
TUGAS,0,0,1,0,1,1,5
CISUC_KIS,1,0,0,0,1,1,6
SAIL,1,0,0,0,1,1,7
SWISS-CHOCOLATE,0,0,1,0,1,1,8
Synalp-Empathic,1,0,0,0,1,1,9
think_positive,0,1,0,0,1,0,10
SentiKLUE,1,0,0,0,1,1,11
JOINT_FORCES,1,0,0,0,1,0,12
AMI_ERIC,1,0,0,0,0,1,13
AUEB,1,0,0,0,1,1,14
CMU-Qatar∗,1,0,0,0,1,1,15
Lt 3,1,0,0,0,1,1,16
columbia nlp,1,0,0,0,1,1,17
LyS,1,0,0,0,1,1,18
NILC USP,1,0,0,0,1,1,19
senti.ue,1,0,0,0,1,1,20
UKPDIPF,1,0,0,0,1,1,21
UKPDIPF,1,0,0,0,1,0,22
SU-FMI∗,1,0,0,0,1,1,23
ECNU,1,0,0,0,1,1,24
ECNU,1,0,0,0,1,0,25
Rapanakis,1,0,0,0,0,1,26
Citius,0,0,1,0,1,0,27
CMUQ-Hybrid∗,1,0,0,0,1,1,28
Citius,0,0,1,0,1,1,29
KUNLPLab,1,0,0,0,1,1,30
senti.ue,1,0,0,0,1,0,31
UPV-ELiRF,1,0,0,0,0,1,32
USP_Biocom,1,0,0,0,1,1,33
DAEDALUS,0,0,1,0,1,0,34
IIT-Patna,1,0,0,0,1,1,35
DejaVu,1,0,0,0,0,1,36
GPLSI,1,0,0,0,1,1,37
BUAP,1,0,0,0,1,1,38
SAP-RI,1,0,0,0,1,1,39
UMCC_DLSI,1,0,0,0,1,1,40
IBM-EG,1,0,0,0,0,1,41
Alberta,1,0,0,0,0,1,42
lsis_lif,1,0,0,0,0,1,43
SU-sentilab,1,0,0,0,0,1,44
SINAI,1,0,0,0,1,1,45
IITPatna,1,0,0,0,1,1,46
Univ. Warwick,1,0,0,0,1,1,47
UMCC_DLSI Graph ,1,0,0,0,1,1,48
Univ. Warwick,1,0,0,0,1,0,49
DAEDALUS,0,0,1,0,1,1,50
,0,0,0,0,0,0,0
