2014 task5,no company,company,some company,organiser,paper,closed,pos
CNRC,1,0,0,0,1,0,0
IUCL,1,0,0,0,1,0,0
UEdin,1,0,0,0,1,0,0
UNAL,1,0,0,0,1,0,0
Sensible,1,0,0,0,1,0,0
TeamZ,0,1,0,0,1,0,0
,0,0,0,0,0,0,0
