2016 subtask only,no company,company,some company,organiser,paper,closed,pos
gw0,1,0,0,0,1,1,6
tbmihaylov,1,0,0,0,1,1,1
ykido,1,0,0,0,1,1,8
,0,0,0,0,0,0,0
2016 sub-subtask,0,0,0,0,0,0,0
ttr,0,0,1,1,1,1,1
,0,0,0,0,0,0,0
,0,0,0,0,0,0,0
