2016 task6b,no company,company,some company,organiser,paper,closed,pos
pkudblab,1,0,0,0,1,0,1
LitisMind,1,0,0,0,0,0,2
INF-UFRGS,1,0,0,0,1,0,3
UWB,1,0,0,0,1,0,4
ECNU,0,0,1,0,1,0,5
USFD,1,0,0,0,1,0,6
Thomson Reuters,1,0,0,0,0,0,7
ltl.uni-due,1,0,0,0,1,0,8
NEUSA,1,0,0,0,0,0,9
,0,0,0,0,0,0,0
