2016 (task 3) User-centred Health IR,no company,company,some company,organiser,paper,closed,
CUNI,1,0,0,0,1,0,0
ECNU,0,0,1,0,1,0,0
GUIR,1,0,0,0,1,0,0
InfoLab,1,0,0,0,1,0,0
KDEIR,1,0,0,0,1,0,0
KISTI,1,0,0,0,1,0,0
MayoNLPTeam,1,0,0,0,1,0,0
MRIM,1,0,0,0,1,0,0
ub-botswana,1,0,0,0,1,0,0
WHUIRgroup,1,0,0,0,1,0,0
